{
  "title": "Hello Json!",
  "description": "Lorem ipsum dolor sit amet, consectetur adipiscing elit. Phasellus sit amet efficitur libero. Mauris ut magna lorem. In nec vehicula velit, vitae dictum tellus. In hac habitasse platea dictumst. Fusce hendrerit ultrices lectus quis bibendum. Vivamus facilisis libero at purus dapibus placerat. Fusce tortor arcu, laoreet non nunc a, lacinia sodales nibh."
}
